<svg width="29" height="42" viewBox="0 0 29 42" fill="none" xmlns="http://www.w3.org/2000/svg">
<g id="Group 1">
<path id="Vector" d="M14.5 38.3625L14.5 1" stroke="#252525" stroke-width="2" stroke-linecap="square" stroke-linejoin="round"/>
<path id="Vector_2" d="M2.0459 28.5458L14.5001 41L26.9542 28.5458" stroke="#252525" stroke-width="2" stroke-linecap="square" stroke-linejoin="round"/>
</g>
</svg>
